<svg xmlns="http://www.w3.org/2000/svg" width="28.162" height="22.775" viewBox="0 0 28.162 22.775">
  <g id="offices" transform="translate(0 -46.366)">
    <g id="Group_175" data-name="Group 175" transform="translate(0 46.366)">
      <path id="Path_392" data-name="Path 392" d="M131.012,69.141h4.975V64.054h2.99v5.087h4.975V46.366H131.012Zm7.377-20.091h2.99v2.99h-2.99Zm0,4.806h2.99v2.99h-2.99Zm0,4.805h2.99v2.99h-2.99Zm-4.806-9.611h2.99v2.99h-2.99Zm0,4.806h2.99v2.99h-2.99Zm0,4.805h2.99v2.99h-2.99Z" transform="translate(-123.4 -46.366)" fill="#006aff"/>
      <path id="Path_393" data-name="Path 393" d="M373.719,81.482v16.1h1.921v4.631h4.529V81.482ZM377.828,95.4h-2.722V92.676h2.722V95.4Zm0-4.375h-2.722V88.3h2.722v2.722Zm0-4.375h-2.722V83.926h2.722v2.722Z" transform="translate(-352.007 -79.442)" fill="#006aff"/>
      <path id="Path_394" data-name="Path 394" d="M0,102.217H4.529V97.586H6.45v-16.1H0ZM2.341,83.926H5.064v2.722H2.341Zm0,4.375H5.064v2.722H2.341Zm0,4.375H5.064V95.4H2.341Z" transform="translate(0 -79.442)" fill="#006aff"/>
    </g>
  </g>
</svg>
