<?xml version="1.0" encoding="iso-8859-1"?>
<!-- Generator: Adobe Illustrator 18.0.0, SVG Export Plug-In . SVG Version: 6.00 Build 0)  -->
<!DOCTYPE svg PUBLIC "-//W3C//DTD SVG 1.1//EN" "http://www.w3.org/Graphics/SVG/1.1/DTD/svg11.dtd">
<svg version="1.1" id="Capa_1" xmlns="http://www.w3.org/2000/svg" xmlns:xlink="http://www.w3.org/1999/xlink" x="0px" y="0px"
	 viewBox="0 0 441.759 441.759" style="enable-background:new 0 0 441.759 441.759;" xml:space="preserve">
<path d="M423.058,96.496H18.701C8.389,96.496,0,104.884,0,115.196s8.389,18.7,18.701,18.7s18.701-8.389,18.701-18.7h-8.735
	c0,5.495-4.47,9.966-9.965,9.966s-9.965-4.471-9.965-9.966s4.47-9.966,9.965-9.966h32.353v63.216
	c-4.12,1.981-7.014,7.449-7.014,14.068c0,4.569,1.384,8.588,3.595,11.294c-4.801,1.711-8.025,5.185-8.025,9.29
	c0,3.765,2.709,6.998,6.854,8.832c-1.518,2.575-2.425,5.915-2.425,9.615c0,6.62,2.894,12.088,7.014,14.069v78.229
	c-24.056,1.104-20.745,14.745-20.745,31.42h381.167c0-16.541,3.068-30.097-20.773-31.39v-78.259
	c4.119-1.982,7.013-7.449,7.013-14.069c0-3.7-0.907-7.039-2.424-9.614c4.147-1.835,6.857-5.067,6.857-8.833
	c0-4.105-3.225-7.579-8.027-9.29c2.21-2.706,3.594-6.725,3.594-11.294c0-6.619-2.894-12.087-7.013-14.067V105.23h32.355
	c5.495,0,9.965,4.471,9.965,9.966s-4.47,9.966-9.965,9.966c-5.495,0-9.965-4.471-9.965-9.966h-8.735
	c0,10.312,8.389,18.7,18.701,18.7c10.312,0,18.701-8.389,18.701-18.7S433.37,96.496,423.058,96.496z M304.075,174.501
	c1.262,0,3.581,3.042,3.581,8.013c0,4.965-2.318,8.004-3.581,8.004c-1.259,0-3.572-3.039-3.572-8.004
	C300.503,177.543,302.815,174.501,304.075,174.501z M312.088,203.098c0,1.263-3.042,3.581-8.013,3.581
	c-4.964,0-8.002-2.318-8.002-3.581c0-1.258,3.038-3.569,8.002-3.569C309.046,199.529,312.088,201.84,312.088,203.098z
	 M220.878,174.501c1.259,0,3.571,3.042,3.571,8.013c0,4.965-2.312,8.004-3.571,8.004c-1.259,0-3.572-3.039-3.572-8.004
	C217.307,177.543,219.619,174.501,220.878,174.501z M228.883,203.098c0,1.263-3.039,3.581-8.004,3.581
	c-4.964,0-8.002-2.318-8.002-3.581c0-1.258,3.038-3.569,8.002-3.569C225.844,199.529,228.883,201.84,228.883,203.098z
	 M137.682,174.501c1.259,0,3.571,3.042,3.571,8.013c0,4.965-2.312,8.004-3.571,8.004c-1.263,0-3.582-3.039-3.582-8.004
	C134.101,177.543,136.419,174.501,137.682,174.501z M145.687,203.098c0,1.263-3.039,3.581-8.004,3.581
	c-4.97,0-8.011-2.318-8.011-3.581c0-1.258,3.041-3.569,8.011-3.569C142.647,199.529,145.687,201.84,145.687,203.098z
	 M54.486,174.501c1.259,0,3.571,3.042,3.571,8.013c0,4.965-2.312,8.004-3.571,8.004c-1.263,0-3.582-3.039-3.582-8.004
	C50.904,177.543,53.223,174.501,54.486,174.501z M46.475,203.098c0-1.258,3.042-3.569,8.011-3.569c4.965,0,8.004,2.312,8.004,3.569
	c0,1.263-3.039,3.581-8.004,3.581C49.516,206.679,46.475,204.361,46.475,203.098z M54.486,229.559c-1.263,0-3.582-3.043-3.582-8.014
	c0-4.964,2.319-8.003,3.582-8.003c1.259,0,3.571,3.039,3.571,8.003C58.057,226.516,55.745,229.559,54.486,229.559z M90.836,313.763
	H57.918v-78.15c4.114-1.982,7.003-7.449,7.003-14.067c0-3.699-0.906-7.038-2.421-9.613c4.146-1.835,6.855-5.067,6.855-8.834
	c0-4.106-3.224-7.58-8.024-9.291c2.208-2.706,3.591-6.724,3.591-11.293c0-6.617-2.889-12.083-7.003-14.066V105.23h32.918V313.763z
	 M134.25,313.763H97.7V105.23h36.55v63.216c-4.12,1.981-7.014,7.449-7.014,14.068c0,4.569,1.384,8.588,3.595,11.294
	c-4.801,1.711-8.025,5.185-8.025,9.29c0,3.765,2.709,6.998,6.854,8.832c-1.518,2.575-2.425,5.915-2.425,9.615
	c0,6.62,2.894,12.088,7.014,14.069V313.763z M137.682,229.559c-1.263,0-3.582-3.043-3.582-8.014c0-4.964,2.319-8.003,3.582-8.003
	c1.259,0,3.571,3.039,3.571,8.003C141.253,226.516,138.941,229.559,137.682,229.559z M174.032,313.763h-32.918v-78.15
	c4.114-1.982,7.003-7.449,7.003-14.067c0-3.699-0.906-7.038-2.421-9.613c4.145-1.835,6.855-5.067,6.855-8.834
	c0-4.106-3.224-7.58-8.024-9.291c2.208-2.706,3.591-6.724,3.591-11.293c0-6.617-2.889-12.083-7.003-14.066V105.23h32.918V313.763z
	 M217.446,313.763h-36.55V105.23h36.55v63.218c-4.114,1.982-7.004,7.448-7.004,14.066c0,4.569,1.383,8.587,3.591,11.294
	c-4.799,1.711-8.022,5.185-8.022,9.29c0,3.766,2.708,6.999,6.852,8.833c-1.516,2.575-2.422,5.915-2.422,9.614
	c0,6.618,2.89,12.085,7.004,14.067V313.763z M220.878,229.559c-1.259,0-3.572-3.043-3.572-8.014c0-4.964,2.313-8.003,3.572-8.003
	c1.259,0,3.571,3.039,3.571,8.003C224.449,226.516,222.137,229.559,220.878,229.559z M257.229,313.763h-32.918v-78.15
	c4.114-1.982,7.003-7.449,7.003-14.067c0-3.699-0.906-7.038-2.421-9.613c4.146-1.835,6.855-5.067,6.855-8.834
	c0-4.106-3.224-7.58-8.024-9.291c2.208-2.706,3.591-6.724,3.591-11.293c0-6.617-2.889-12.083-7.003-14.066V105.23h32.918V313.763z
	 M300.643,313.763h-36.55V105.23h36.55v63.218c-4.114,1.982-7.004,7.448-7.004,14.066c0,4.569,1.383,8.587,3.591,11.294
	c-4.799,1.711-8.022,5.185-8.022,9.29c0,3.766,2.708,6.999,6.853,8.833c-1.516,2.575-2.422,5.915-2.422,9.614
	c0,6.618,2.89,12.085,7.004,14.067V313.763z M304.075,229.559c-1.259,0-3.572-3.043-3.572-8.014c0-4.964,2.313-8.003,3.572-8.003
	c1.262,0,3.581,3.039,3.581,8.003C307.655,226.516,305.337,229.559,304.075,229.559z M340.426,313.763h-32.919v-78.148
	c4.119-1.982,7.013-7.449,7.013-14.069c0-3.7-0.907-7.039-2.424-9.614c4.147-1.835,6.857-5.067,6.857-8.833
	c0-4.105-3.225-7.579-8.027-9.29c2.21-2.706,3.594-6.725,3.594-11.294c0-6.619-2.894-12.087-7.013-14.067V105.23h32.919V313.763z
	 M383.839,313.763H347.29V105.23h36.549v63.218c-4.114,1.982-7.004,7.448-7.004,14.066c0,4.569,1.383,8.587,3.591,11.294
	c-4.799,1.711-8.022,5.185-8.022,9.29c0,3.766,2.708,6.999,6.853,8.833c-1.516,2.575-2.422,5.915-2.422,9.614
	c0,6.618,2.89,12.085,7.004,14.067V313.763z M387.271,229.559c-1.259,0-3.572-3.043-3.572-8.014c0-4.964,2.313-8.003,3.572-8.003
	c1.262,0,3.581,3.039,3.581,8.003C390.852,226.516,388.533,229.559,387.271,229.559z M395.284,203.098
	c0,1.263-3.042,3.581-8.013,3.581c-4.964,0-8.002-2.318-8.002-3.581c0-1.258,3.038-3.569,8.002-3.569
	C392.242,199.529,395.284,201.84,395.284,203.098z M390.852,182.514c0,4.965-2.318,8.004-3.581,8.004
	c-1.259,0-3.572-3.039-3.572-8.004c0-4.971,2.313-8.013,3.572-8.013C388.533,174.501,390.852,177.543,390.852,182.514z"/>
<g>
</g>
<g>
</g>
<g>
</g>
<g>
</g>
<g>
</g>
<g>
</g>
<g>
</g>
<g>
</g>
<g>
</g>
<g>
</g>
<g>
</g>
<g>
</g>
<g>
</g>
<g>
</g>
<g>
</g>
</svg>
